[gd_scene load_steps=6 format=2]

[ext_resource path="res://assets/coin.png" type="Texture" id=1]
[ext_resource path="res://src/scripts/coin.gd" type="Script" id=2]

[sub_resource type="Animation" id=1]
resource_name = "default"
length = 0.6
tracks/0/type = "value"
tracks/0/path = NodePath(".:frame")
tracks/0/interp = 1
tracks/0/loop_wrap = true
tracks/0/imported = false
tracks/0/enabled = true
tracks/0/keys = {
"times": PoolRealArray( 0, 0.1, 0.2, 0.3, 0.4, 0.5 ),
"transitions": PoolRealArray( 1, 1, 1, 1, 1, 1 ),
"update": 1,
"values": [ 0, 1, 2, 3, 2, 1 ]
}

[sub_resource type="RectangleShape2D" id=2]
extents = Vector2( 4.45054, 7.65783 )

[sub_resource type="RectangleShape2D" id=3]
extents = Vector2( 3.01812, 6.99674 )

[node name="Coin" type="KinematicBody2D"]
script = ExtResource( 2 )

[node name="Sprite" type="Sprite" parent="."]
texture = ExtResource( 1 )
hframes = 4
frame = 1

[node name="Animation" type="AnimationPlayer" parent="Sprite"]
anims/default = SubResource( 1 )

[node name="PlayerDetector" type="Area2D" parent="."]

[node name="CollisionShape2D" type="CollisionShape2D" parent="PlayerDetector"]
shape = SubResource( 2 )

[node name="Hitbox" type="CollisionShape2D" parent="."]
shape = SubResource( 3 )
one_way_collision = true
[connection signal="body_entered" from="PlayerDetector" to="." method="_on_PlayerDetector_body_entered"]
