; Engine configuration file.
; It's best edited using the editor UI and not directly,
; since the parameters that go here are not all obvious.
;
; Format:
;   [section] ; section goes between []
;   param=value ; assign values to parameters

config_version=4

_global_script_classes=[ {
"base": "KinematicBody2D",
"class": "Actor",
"language": "GDScript",
"path": "res://src/scripts/actor.gd"
}, {
"base": "KinematicBody2D",
"class": "Player",
"language": "GDScript",
"path": "res://src/scripts/player.gd"
} ]
_global_script_class_icons={
"Actor": "",
"Player": ""
}

[application]

config/name="Snowman: The Game"
run/main_scene="res://src/resource/main-menu.tscn"
config/icon="res://icon.png"

[display]

window/size/width=300
window/size/height=150
window/size/test_width=900
window/size/test_height=450
mouse_cursor/custom_image="res://assets/crosshair.png"
mouse_cursor/custom_image_hotspot=Vector2( 8, 8 )
window/stretch/mode="2d"

[input]

move_left={
"deadzone": 0.5,
"events": [ Object(InputEventKey,"resource_local_to_scene":false,"resource_name":"","device":0,"alt":false,"shift":false,"control":false,"meta":false,"command":false,"pressed":false,"scancode":65,"unicode":0,"echo":false,"script":null)
 ]
}
move_right={
"deadzone": 0.5,
"events": [ Object(InputEventKey,"resource_local_to_scene":false,"resource_name":"","device":0,"alt":false,"shift":false,"control":false,"meta":false,"command":false,"pressed":false,"scancode":68,"unicode":0,"echo":false,"script":null)
 ]
}
jump={
"deadzone": 0.5,
"events": [ Object(InputEventKey,"resource_local_to_scene":false,"resource_name":"","device":0,"alt":false,"shift":false,"control":false,"meta":false,"command":false,"pressed":false,"scancode":32,"unicode":0,"echo":false,"script":null)
, Object(InputEventKey,"resource_local_to_scene":false,"resource_name":"","device":0,"alt":false,"shift":false,"control":false,"meta":false,"command":false,"pressed":false,"scancode":87,"unicode":0,"echo":false,"script":null)
 ]
}
haxor-console={
"deadzone": 0.5,
"events": [ Object(InputEventKey,"resource_local_to_scene":false,"resource_name":"","device":0,"alt":false,"shift":false,"control":false,"meta":false,"command":false,"pressed":false,"scancode":16777218,"unicode":0,"echo":false,"script":null)
 ]
}
ui_enter={
"deadzone": 0.5,
"events": [ Object(InputEventKey,"resource_local_to_scene":false,"resource_name":"","device":0,"alt":false,"shift":false,"control":false,"meta":false,"command":false,"pressed":false,"scancode":16777221,"unicode":0,"echo":false,"script":null)
 ]
}

[rendering]

environment/default_clear_color=Color( 0, 0.717647, 1, 1 )
environment/default_environment="res://default_env.tres"
